cookie	install_id=75086483700
cookie	ttreq=1$7c7491fa0325f0f01578cdb531642ea42f7ca82a
cookie	sid_guard=3f85836b10cfa20b6400f803eeab9dd6%7C1560586066%7C21600%7CSat%2C+15-Jun-2019+14%3A07%3A46+GMT
cookie	uid_tt=1a2ac6f1cc2fbc06f89229dbc64d85aa
cookie	sid_tt=3f85836b10cfa20b6400f803eeab9dd6
cookie	sessionid=3f85836b10cfa20b6400f803eeab9dd6
cookie	odin_tt=ef4210f300fd1d6cc45e379980101ee8f9c8f47b899f55d9d45e59f60faa1eca491f29ad93e0aac7d6fcfa444afa353d